LineBreakpoint created at classFromAnotherPackage.kt:7
!JDK_HOME!\bin\java -agentlib:jdwp=transport=dt_socket,address=!HOST_NAME!:!HOST_PORT!,suspend=y,server=n -Dfile.encoding=!FILE_ENCODING! -classpath !APP_PATH!\classes;!KOTLIN_RUNTIME!;!RT_JAR! classFromAnotherPackage.ClassFromAnotherPackagePackage
Connected to the target VM, address: '!HOST_NAME!:PORT_NAME!', transport: 'socket'
classFromAnotherPackage.kt:6
Compile bytecode for MyJavaClass()
Compile bytecode for stepInto.MyJavaClass()
Disconnected from the target VM, address: '!HOST_NAME!:PORT_NAME!', transport: 'socket'

Process finished with exit code 0
