LineBreakpoint created at extractThis.kt:13
!JDK_HOME!\bin\java -agentlib:jdwp=transport=dt_socket,address=!HOST_NAME!:!HOST_PORT!,suspend=y,server=n -Dfile.encoding=!FILE_ENCODING! -classpath !APP_PATH!\classes;!KOTLIN_RUNTIME!;!RT_JAR! extractThis.ExtractThisPackage
Connected to the target VM, address: '!HOST_NAME!:PORT_NAME!', transport: 'socket'
extractThis.kt:12
Compile bytecode for prop
Compile bytecode for this.prop
Compile bytecode for prop + a
Disconnected from the target VM, address: '!HOST_NAME!:PORT_NAME!', transport: 'socket'

Process finished with exit code 0
