LineBreakpoint created at multilineExpressionAtBreakpoint.kt:5
!JDK_HOME!\bin\java -agentlib:jdwp=transport=dt_socket,address=!HOST_NAME!:!HOST_PORT!,suspend=y,server=n -Dfile.encoding=!FILE_ENCODING! -classpath !APP_PATH!\classes;!KOTLIN_RUNTIME!;!RT_JAR! multilineExpressionAtBreakpoint.MultilineExpressionAtBreakpointPackage
Connected to the target VM, address: '!HOST_NAME!:PORT_NAME!', transport: 'socket'
multilineExpressionAtBreakpoint.kt:4
Compile bytecode for 1 + 1
Disconnected from the target VM, address: '!HOST_NAME!:PORT_NAME!', transport: 'socket'

Process finished with exit code 0
